{
    "AUTHOR" : "Roxedus",
    "INSTALL_MSG" : "Im going to try not crash your server",
    "NAME" : "Gifify",
    "SHORT" : "Yeets the current games",
    "DESCRIPTION" : "yote",
    "TAGS" : ["utility", "fun"],
    "HIDDEN" : false
}